…
    ## `summarise()` has grouped output by 'Cut Clarity', 'cut', 'clarity'. You can override using the `.groups` argument.

``` r
df_diamonds_summary
```

    ## # A tibble: 276 x 7
    ## # Groups:   Cut Clarity, cut, clarity [40]
    ##    `Cut Clarity` cut   clarity color     n price_mean price_sd
    ##    <chr>         <ord> <ord>   <ord> <int>      <dbl>    <dbl>
    ##  1 Fair I1       Fair  I1      D         4      7383     5899.
    ##  2 Fair I1       Fair  I1      E         9      2095.     824.
    ##  3 Fair I1       Fair  I1      F        35      2544.    2227.
    ##  4 Fair I1       Fair  I1      G        53      3187.    2598.
    ##  5 Fair I1       Fair  I1      H        52      4213.    3149.
    ##  6 Fair I1       Fair  I1      I        34      3501     2157.
    ##  7 Fair I1       Fair  I1      J        23      5795.    4594.
    ##  8 Fair IF       Fair  IF      D         3      1620.     525.
    ##  9 Fair IF       Fair  IF      F         4      2344      901.
    ## 10 Fair IF       Fair  IF      G         2      1488      511.
    ## # … with 266 more rows
…
