…
When writing a function that takes **tibble variable names** (as
strings) and uses dplyr operations, you can use the `.data` pronoun with
square braces `[[ ]]`.

``` r
for (var in names(mtcars)[1:2]) {
  mtcars %>%
    count(.data[[var]]) %>% print()
}
```

    ## # A tibble: 25 x 2
    ##      mpg     n
    ##    <dbl> <int>
    ##  1  10.4     2
    ##  2  13.3     1
    ##  3  14.3     1
    ##  4  14.7     1
    ##  5  15       1
    ##  6  15.2     2
    ##  7  15.5     1
    ##  8  15.8     1
    ##  9  16.4     1
    ## 10  17.3     1
    ## # … with 15 more rows
…
``` r
my_summarize <- function(.data, ...) {
  .data %>%
    group_by(...) %>%
    summarize(
      mass = mean(mass, na.rm = TRUE),
      height = mean(height, na.rm = TRUE)
    )
}

starwars %>% my_summarize(species, gender)
```

    ## # A tibble: 43 x 4
    ## # Groups:   species [38]
    ##    species   gender  mass height
    ##    <chr>     <chr>  <dbl>  <dbl>
    ##  1 Aleena    male    15       79
    ##  2 Besalisk  male   102      198
    ##  3 Cerean    male    82      198
    ##  4 Chagrian  male   NaN      196
    ##  5 Clawdite  female  55      168
    ##  6 Droid     none   140      200
    ##  7 Droid     <NA>    46.3    120
    ##  8 Dug       male    40      112
    ##  9 Ewok      male    20       88
    ## 10 Geonosian male    80      183
    ## # … with 33 more rows
